Tract-to-CCA Crosswalk — xwalk_tract2cca • cmapgeo
…
If your data is also available at the block group level, it is recommended
that you use that with xwalk_blockgroup2cca instead of the tract-level
allocation.

    Examples

library(tidyverse)

# View the tracts with population not fully contained in a single CCA
filter(xwalk_tract2cca, pop_pct < 1)

#> # A tibble: 22 x 5
#>    geoid_tract cca_num  hu_pct  hh_pct pop_pct
#>    <chr>         <int>   <dbl>   <dbl>   <dbl>
#>  1 17031090200       9 0.983   0.984   0.987  
#>  2 17031090300       9 0.958   0.956   0.951  
#>  3 17031520500      52 0.997   0.997   0.996  
#>  4 17031520500      55 0.00261 0.00270 0.00395
#>  5 17031520600      52 0.993   0.992   0.992  
#>  6 17031520600      55 0.00726 0.00760 0.00786
#>  7 17031570500      57 0.992   0.992   0.988  
#>  8 17031570500      62 0.00775 0.00844 0.0122 
#>  9 17031770902      76 0.0808  0.0768  0.0557 
#> 10 17031810400      10 0.0723  0.0703  0.0525 
#> # … with 12 more rows
…
