Block Group-to-CCA Crosswalk — xwalk_blockgroup2cca • cmapgeo
…
library(tidyverse)

#> ── Attaching packages ─────────────────────────────────────── tidyverse 1.3.0 ──
#> ✔ tibble  3.1.0     ✔ dplyr   1.0.5
#> ✔ tidyr   1.1.3     ✔ stringr 1.4.0
#> ✔ readr   1.4.0     ✔ forcats 0.5.1
#> ✔ purrr   0.3.4     
#> ── Conflicts ────────────────────────────────────────── tidyverse_conflicts() ──
#> ✖ dplyr::filter() masks stats::filter()
#> ✖ dplyr::lag()    masks stats::lag()

# View the block groups with households not fully contained in a single CCA
filter(xwalk_blockgroup2cca, hh_pct < 1)

#> # A tibble: 21 x 5
#>    geoid_blkgrp cca_num  hu_pct  hh_pct pop_pct
#>    <chr>          <int>   <dbl>   <dbl>   <dbl>
#>  1 170310902004       9 0.947   0.949   0.954  
#>  2 170310903001       9 0.958   0.956   0.951  
#>  3 170314314001      43 1       1.00    1      
#>  4 170315205003      52 0.992   0.991   0.987  
#>  5 170315205003      55 0.00828 0.00866 0.0129 
#>  6 170315206001      52 0.993   0.992   0.992  
#>  7 170315206001      55 0.00726 0.00760 0.00786
#>  8 170315705002      57 0.987   0.987   0.980  
#>  9 170315705002      62 0.0125  0.0134  0.0199 
#> 10 170315805011      58 1       1.00    1      
#> # … with 11 more rows
…
#> Getting data from the 2015-2019 5-year ACS
#> Loading ACS5 variables for 2019 from table B23025. To cache this dataset for faster access to ACS tables in the future, run this function with `cache_table = TRUE`. You only need to do this once per ACS dataset.

df_cca <- xwalk_blockgroup2cca %>%
  left_join(df_blkgrp, by = c("geoid_blkgrp" = "GEOID")) %>%
  mutate(civ_lf = civ_lf * pop_pct,
         unemp = unemp * pop_pct) %>%
  group_by(cca_num) %>%
  summarize_at(vars(civ_lf, unemp), sum) %>%
  mutate(unemp_rate = unemp / civ_lf)
df_cca

#> # A tibble: 77 x 4
#>    cca_num civ_lf  unemp unemp_rate
#>      <int>  <dbl>  <dbl>      <dbl>
#>  1       1 32157  1734       0.0539
#>  2       2 37893  2736       0.0722
#>  3       3 37513  1509       0.0402
#>  4       4 27366  1206       0.0441
#>  5       5 21857   572       0.0262
#>  6       6 75850  2153       0.0284
#>  7       7 46846  1255       0.0268
#>  8       8 65253  1819       0.0279
#>  9       9  6289.   97.7     0.0155
#> 10      10 20303.  741.      0.0365
#> # … with 67 more rows
…
